"National research priority areas in selected schemes, by commencement year 1, 2",,,,,,,
,,,,,,,
Number of projects funded by commencement year,,,,,,,
,National Research Priority,2004,2005,2006,2007,2008,2009
,An Environmentally Sustainable Australia,272,322,285,273,273,333
,Promoting and Maintaining Good Health,157,286,296,300,330,385
,Frontier Technologies for Building and Transforming Australian Industries,545,603,571,509,541,625
,Safeguarding Australia,112,171,157,178,163,179
,Non-priority,562,363,215,161,145,110
,Total,1648,1745,1524,1421,1452,1632
,,,,,,,
Funding over project lives by commencement year ,,,,,,,
,National Research Priority,2004,2005,2006,2007,2008,2009
,An Environmentally Sustainable Australia,"$74,326,538","$120,200,172","$95,679,580","$89,439,980","$109,522,999","$139,654,948"
,Promoting and Maintaining Good Health,"$48,609,195","$92,623,521","$76,525,115","$85,729,810","$91,538,598","$150,245,565"
,Frontier Technologies for Building and Transforming Australian Industries,"$189,915,066","$262,047,127","$208,429,053","$195,509,053","$200,950,233","$272,862,902"
,Safeguarding Australia,"$36,322,762","$42,301,107","$44,172,038","$47,940,300","$48,576,496","$62,782,721"
,Non-priority,"$118,694,586","$83,305,600","$50,789,279","$44,235,251","$39,992,414","$30,631,503"
,Total,"$467,868,147","$600,477,527","$475,595,065","$462,854,394","$490,580,740","$656,177,639"
,,,,,,,
"Note 1 - The schemes included are: Centres of Excellence, Discovery Indigenous Researchers Development, Discovery Projects, Federation Fellowships, Australian Laureate Fellowships, Future Fellowships, Linkage Projects (APAI Only), Linkage APD CSIRO, Linkage Infrastructure Equipment and Facilities, Linkage Projects, Special Research Initiatives, Linkage International, ARC Research Networks, and Special Research Initiatives (Thinking Systems). ",,,,,,,
"Note 2 - The NRP is selected by applicants on research proposals. Applicants are invited to indicate on the Proposal if the Proposal falls within one of the four Priorities and if so, to indicate the underlying Priority Goals the proposal falls in. The ARC has not verified, or changed, any of the selections made by the applicants. ",,,,,,,
,,,,,,,
"Number of projects by Priority Goal, by commencement year 1",,,,,,,
National Research Priority,Priority Goal,2004,2005,2006,2007,2008,2009
An Environmentally Sustainable Australia,Not specified,28,,,,,
,Developing deep earth resources,40,53,37,40,38,37
,"Overcoming soil loss, salinity and acidity",42,47,58,25,23,38
,Reducing and capturing emissions in transport and energy generation,34,26,29,35,41,44
,Responding to climate change and variability,2,78,87,97,118,162
,Sustainable use of Australia's biodiversity,114,129,112,114,99,128
,Transforming existing industries,34,71,58,60,50,66
,Water - a critical resource,88,97,92,76,79,111
Promoting and Maintaining Good Health,Not specified,1,,,,,
,"Ageing well, ageing productively",84,90,106,107,110,159
,A healthy start to life,53,77,78,72,92,104
,Preventative healthcare,75,129,94,110,121,147
,Strengthening Australia's social and economic fabric,,123,136,161,168,174
Frontier Technologies for Building and Transforming Australian Industries,Not specified,,,3,,,
,Advanced materials,160,172,163,137,139,173
,Breakthrough sciences,194,235,257,272,276,319
,Frontier technologies,319,326,335,322,321,399
,Smart information use,139,157,130,116,122,120
,Promoting an innovation culture and economy,2,94,89,77,86,98
Safeguarding Australia,Not specified,3,,,,,
,Critical infrastructure,29,19,21,21,22,14
,Transformational defence technologies,16,8,13,11,11,9
,Protecting Australia from invasive diseases and pests,23,23,23,21,25,27
,Protecting Australia from terrorism and crime,68,41,36,41,40,39
,Understanding our region and the world,2,106,98,110,89,114
Note 1 - One Project could have more than one Priority Goal selected by the applicants. Project numbers can be double-counted if this is the case for a Project.,,,,,,,
,,,,,,,
Funding over project lives by Priority Goal and by commencement year 1,,,,,,,
National Research Priority,Priority Goal,2004,2005,2006,2007,2008,2009
An Environmentally Sustainable Australia,Not specified,"$2,790,800",,,,,
,Sustainable use of Australia's biodiversity,"$27,259,916","$30,545,785","$22,291,918","$24,621,982","$19,355,256","$33,033,102"
,Developing deep earth resources,"$8,512,272","$27,727,380","$8,904,472","$9,587,810","$12,903,904","$13,973,380"
,Reducing and capturing emissions in transport and energy generation,"$6,911,514","$6,406,324","$6,260,600","$8,433,663","$11,458,728","$11,992,786"
,Responding to climate change and variability,"$81,298","$16,716,472","$15,155,815","$16,909,968","$27,868,937","$40,796,906"
,"Overcoming soil loss, salinity and acidity","$6,329,014","$6,686,236","$8,753,206","$4,243,997","$3,813,918","$5,517,781"
,Transforming existing industries,"$5,249,375","$15,662,283","$19,017,713","$13,264,035","$12,680,313","$13,549,919"
,Water - a critical resource,"$17,192,349","$16,455,692","$15,295,856","$12,378,525","$21,441,942","$20,791,074"
Promoting and Maintaining Good Health,Not specified,"$1,500,000",,,,,
,"Ageing well, ageing productively","$18,555,250","$27,288,378","$19,832,122","$19,761,881","$22,106,141","$45,442,835"
,A healthy start to life,"$14,759,465","$15,179,335","$13,536,510","$13,386,961","$16,577,663","$25,583,122"
,Preventative healthcare,"$13,794,480","$30,833,066","$16,992,914","$22,801,270","$22,331,674","$37,826,120"
,Strengthening Australia's social and economic fabric,,"$19,322,741","$26,163,569","$29,779,698","$30,523,120","$41,393,488"
Frontier Technologies for Building and Transforming Australian Industries,Not specified,,,"$6,700,000",,,
,Advanced materials,"$40,797,301","$39,852,779","$31,445,157","$27,476,153","$30,910,930","$41,703,730"
,Breakthrough sciences,"$44,424,011","$73,509,084","$54,125,741","$68,335,636","$62,880,040","$80,256,940"
,Frontier technologies,"$75,764,988","$99,763,215","$76,034,556","$66,551,779","$70,506,853","$106,175,456"
,Smart information use,"$28,820,811","$24,448,911","$25,254,540","$21,781,787","$22,637,545","$23,398,069"
,Promoting an innovation culture and economy,"$107,956","$24,473,139","$14,869,059","$11,363,699","$14,014,865","$21,328,707"
Safeguarding Australia,Not specified,"$3,100,000",,,,,
,Critical infrastructure,"$5,484,389","$4,713,686","$4,578,391","$4,197,862","$4,739,542","$3,154,790"
,Transformational defence technologies,"$6,848,088","$1,325,305","$2,837,449","$2,091,862","$2,454,475","$2,270,680"
,Protecting Australia from invasive diseases and pests,"$8,430,953","$4,696,045","$6,332,238","$7,106,713","$7,774,432","$9,898,783"
,Protecting Australia from terrorism and crime,"$12,371,030","$7,212,134","$7,430,459","$8,738,950","$9,274,648","$12,017,591"
,Understanding our region and the world,"$88,302","$24,353,938","$22,993,502","$25,804,914","$24,333,400","$35,440,877"
No-priority projects,,"$118,694,586","$83,305,600","$50,789,279","$44,235,251","$39,992,414","$30,631,503"
Total,,"$467,868,147","$600,477,527","$475,595,065","$462,854,394","$490,580,740","$656,177,639"
"Note 1 - A project could have more than one Priority Goal selected by research applicants. For the purpose of presenting data in this table, the funding amount for a project is equally split by the number of Priority Goals on a project if more than one Priority Goal is selected for the project. ",,,,,,,
