; webdata_trends.xls > participants
; I don't know what this is showing!

"Number of named participants in projects funded under selected schemes1, by commencement year",,,,,,,,,
,,,,,,,,,
Number of Fellowships2 ,,,,,,,,,
Scheme,Fellowship Type,2002,2003,2004,2005,2006,2007,2008,2009
Discovery Projects,Australian Postdoctoral Fellowship,107,122,112,112,110,110,120,109
Discovery Projects,Australian Professorial Fellowship,23,25,24,23,25,29,28,29
Discovery Projects,Australian Research Fellowship,17,16,18,14,17,33,27,31
Discovery Projects,Queen Elizabeth II Fellowship,15,16,15,18,16,25,31,26
Discovery Projects,Research Cadetship - Aboriginal and Torres Strait Islander ,0,1,1,2,1,2,5,
Discovery Projects,Indigenous Research Fellow,,,,,,,,1
Federation Fellowships,Federation Fellowship,25,24,25,24,24,21,14,
Linkage International Projects,Linkage International Fellowship,12,16,11,19,20,22,22,31
Linkage Projects,Australian Postdoctoral Fellowship (Industry),32,32,46,33,30,32,30,31
Linkage Projects,Linkage Industry Fellowship,0,0,3,3,0,1,1,4
Australian Laureate Fellowships,Australian Laureate Fellowship,,,,,,,,15
Future Fellowships,Future Fellowship,,,,,,,,200
,,,,,,,,,
Number of other named participants (not including Fellowship holders) 3 ,,,,,,,,,
Scheme,Role of Participants,2002,2003,2004,2005,2006,2007,2008,2009
ARC Research Networks,Network Convenor,,,24,,,,,
,Network Particpant,,,1135,,,,,
Centres of Excellence,Chief Investigator,,199,,127,,,,
,Interim Director,,17,,10,,,,
,Partner Investigator,,63,,68,,,,
Discovery Indigenous Researchers Development,Chief Investigator,8,5,2,3,4,12,2,8
,Mentor,5,4,2,5,3,10,7,7
,Supervisor,6,5,4,4,1,10,8,18
Discovery Projects,Chief Investigator,1162,1434,1317,1633,1380,1193,1368,1377
,Partner Investigator,235,289,226,400,401,373,413,395
Linkage APD CSIRO,Chief Investigator - CSIRO,,11,,,,,,
,Chief Investigator - University,,17,,,,,,
Linkage Infrastructure Equipment and Facilities,Chief Investigator,478,516,621,718,817,777,875,1060
,Partner Investigator,,11,,,,57,41,64
Linkage International,Chief Investigator,132,180,170,91,174,106,123,47
,Overseas Investigators,,26,112,71,130,97,131,21
,Partner Investigator,77,2,2,1,6,3,2,2
Linkage Projects,Chief Investigator,555,849,971,1158,976,1137,1137,1329
,Partner Investigator,300,338,434,489,399,480,499,617
Linkage Projects (APAI Only),Chief Investigator,378,391,247,,,,,
,Partner Investigator,164,144,87,,,,,
Special Research Initiatives,Administrative Contact,,147,,,,,,
,Chief Investigator,,,,185,,,,
,Initiiative Co-ordinator,,147,,,,,,
,Partner Investigator,,3719,,56,,,,
Special Research Initiatives (Thinking Systems),Chief Investigator,,,,,31,,,
,Partner Investigator,,,,,7,,,
Total,,3500,8514,5354,5019,4329,4255,4606,4945
,,,,,,,,,
"Note 1 - The schemes included are: Centre sof Excellence, Discovery Indigenous Researchers Development, Discovery Projects, Federation Fellowships, Australian Laureate Fellowships, Future Fellowships, Linkage Projects (APAI Only), Linkage APD CSIRO, Linkage Infrastructure Equipment and Facilities, Linkage Projects, Special Research Initiatives, Linkage International, ARC Research Networks, and Special Research Initiatives (Thinking Systems). ",,,,,,,,,
Note 2 - The names of Fellowship holders are presented in the NCGP datasets for New and Ongoing Projects and Completed Projects.,,,,,,,,,
"Note 3 - Research participants could be involved in more than one project in a single scheme and/or in more than one scheme in a year. In this case, the number is counted more than once.",,,,,,,,,
