"ARC Funding over Project Lives in Selected Schemes1 by RFCD 2 at 4-digit level, by commencement year",,,,,,,,,
,,,,,,,,,
,,,,,,,,,
RFCD,Description,2002,2003,2004,2005,2006,2007,2008,2009
2301,Mathematics,8009268,12250916,12447297,10620082,15531751,14307947,15001247,16896336
2302,Statistics,1864116,13232571,2164799,3936386,3972495,3361908,4471748,5439240
2399,Other mathematical sciences,879201,329099,425000,2880499,856000,561000,2463854,1214870
2401,Astronomical sciences,10464384,12205292,8103336,11167211,8691205,7364314,11796851,13005488
2402,Theoretical and condensed matter physics,8879792,26668143,12525983,5530012,7247660,12916296,13179904,9077200
2403,Atomic and molecular physics; nuclear and particle physics; plasma physics,5832253,15095710,6701946,10546693,5222500,8654140,8097368,8471417
2404,Optical physics,7984301,10949115,7506630,8040298,7951844,7850096,10432460,8875582
2405,Classical physics,425000,1808774,590000,1542212,1100385,1255000,360000,1245000
2499,Other physical sciences,3982500,2888400,7152287,12076665,6959890,5927895,5535652,5050000
2501,Physical chemistry (incl. structural),10366825,21375489,11587356,30512668,13218418,9067309,10454967,16568731
2502,Inorganic chemistry,4061256,4284000,3832368,5823046,5364950,4387070,3550000,7389100
2503,Organic chemistry,7806040,7076603,7848908,19312362,10168824,7209998,7506785,6936840
2504,Analytical chemistry,3276370,2186131,4465918,1421373,6029913,2440626,1504275,4764825
2505,Macromolecular chemistry,2858155,5227472,6320983,6602082,4696020,5117942,5139477,6602800
2506,Theoretical and computational chemistry,580000,1684800,1580000,4691687,5098570,3146485,1126089,3421160
2599,Other chemical sciences,4152594,4834839,4728490,7379620,1648775,2131728,4865867,3486400
2601,Geology,12718612,12196025,11060103,29276723,7333759,10035036,12723947,9011150
2602,Geophysics,734755,1223198,1749468,524000,2252000,1685757,1025999,2363000
2603,Geochemistry,2286660,3634134,1802870,3295835,2871440,3151367,4854472,5009400
2604,Oceanography,1809989,818035,351270,3138332,1577400,1358040,3021202,5806800
2605,Hydrology,809180,1121670,1349203,2302907,498918,1299878,1677000,2489000
2606,Atmospheric sciences,2433600,3145504,5354675,5858889,6805400,3642378,1674736,3218400
2699,Other earth sciences,187566,190000,106600,266000,,,,
2701,Biochemistry and cell biology,14300463,20723804,18652059,20033788,18670740,15184353,20335346,32010786
2702,Genetics,9481450,38578054,10941537,13979736,11531392,19393559,13620551,21940240
2703,Microbiology,4275600,7357925,4497501,14185270,4809417,6271117,4321224,5952393
2704,Botany,5496024,5396733,4491517,18109293,7700850,7857388,3765310,6776955
2705,Zoology,1994504,2018099,946822,3922444,1875250,2580004,1864000,5423743
2706,Physiology,880914,3811000,3652490,3766500,4397000,2117115,1455280,2287000
2707,Ecology and evolution,13045238,13938129,23629506,33042218,15478142,20064241,15027398,35365155
2708,Biotechnology,2333943,2062127,6335345,1789159,1783900,1985879,6410921,4218000
2799,Other biological sciences,900000,1992099,1007599,879000,369000,4429611,5189349,4142600
2801,Information systems,5948562,6490218,11224608,9616707,10446741,6758274,7444996,6578420
2802,Artificial intelligence and signal and image processing,5011916,17852910,9041736,9124596,12521824,8777286,9297263,13561430
2803,Computer software,3085923,3248976,2790751,3647836,1923657,3022266,2649870,2444000
2804,Computation theory and mathematics,1520501,2278307,3245991,3594632,909886,1311699,1313492,1450140
2805,Data format,1339628,1991297,1453736,1853831,2369736,2021259,1735186,2651270
2899,"Other information, computing and communication sciences",253232,330000,490668,910696,1581110,,,1038800
2901,Industrial biotechnology and food sciences,260725,785396,1209349,1477386,827950,1510985,2675214,1445572
2902,Aerospace engineering,1146042,692635,2020000,,1175000,841942,270000,500000
2903,Manufacturing engineering,4395599,11427294,3109665,2782551,4515681,3670709,6183716,3765140
2904,Automotive engineering,365090,373120,865400,709662,410000,435000,,180000
2905,Mechanical and industrial engineering,1759805,3781091,3078629,2098157,985997,3215354,2719254,1310000
2906,Chemical engineering,5458633,6843552,3681437,5162304,3880168,7667992,8023102,8144640
2907,Resources engineering,1545492,2789883,3564611,4109196,11885576,1463090,3158000,4270220
2908,Civil engineering,7327252,13861853,10405246,8156809,6446607,3654812,6805151,15004160
2909,Electrical and electronic engineering,7256875,17196457,5652101,6495404,5150434,3658896,6703284,5086840
2910,Geomatic engineering,2501912,2719947,2080546,1682938,2725168,1049677,5308408,1959400
2911,Environmental engineering,765216,5163653,4417959,4668567,3764166,3106341,7414803,3162420
2912,Maritime engineering,1018824,788000,418800,630528,392920,,1497812,
2913,Metallurgy,4316445,2004099,5103699,6071641,2849936,5662687,4350487,4204066
2914,Materials engineering,8758457,7052809,14749915,24013068,9677827,10579928,12878942,21219512
2915,Biomedical engineering,2826778,7510593,7001746,5979593,6723130,5532555,7625480,8580600
2916,Computer hardware,,180000,945161,423000,1480110,782000,,325000
2917,Communications technologies,5776866,22323280,9368345,7912998,6680545,8363638,7237336,14194551
2918,Interdisciplinary engineering,2795441,19063016,10480084,16719539,11950010,10804250,15659945,20133725
2999,Other engineering and technology,1621991,1038733,2321002,2820990,2407753,4270761,2237397,3661300
3001,Soil and water sciences,1059563,924198,3455245,1428385,1150000,435000,2808752,4002660
3002,Crop and pasture protection,2790650,4852368,4163367,2781704,4751550,6296829,1879127,1410000
3003,Horticulture,488193,1194497,666336,775000,678875,557000,497159,1310662
3004,Animal production,393147,2177134,1999006,642444,1499200,2236400,1764351,720000
3005,Veterinary sciences,2195408,1443198,3092368,2264706,1538000,1010350,1060180,2344000
3006,Forestry sciences,1739130,1017198,2338570,509598,2254528,896000,905000,1432000
3007,Fisheries sciences,692439,205000,427906,984844,392000,1041307,2034024,1805800
3008,Environmental sciences,3534847,3942293,2497693,8349993,9125844,7026991,3276662,7433332
3009,"Land, parks and agriculture management",487540,123000,463518,525898,821000,282000,330000,592000
3099,"Other agricultural, veterinary and environmental sciences",,335000,,355894,319000,,,
3101,Architecture and urban environment,1437288,776279,2161706,2404605,3470145,4360360,2091524,5407402
3102,Building,546090,402398,179288,1015444,344850,275354,912950,1704299
3199,"Other architecture, urban environment and building",170635,,,,,700400,,180000
3202,Immunology,670849,868000,340668,635000,920000,396000,1967750,6181400
3203,Medical biochemistry and clinical chemistry,689782,69099,1519710,1273408,1540500,267311,255000,1636400
3204,Medical microbiology,695000,20000,,1235000,1857110,336042,,2235200
3205,Pharmacology and pharmaceutical sciences,3528233,690099,1165748,980300,1551500,3047257,1913533,918670
3206,Medical physiology,536000,255000,784692,830000,641000,1079810,824500,686400
3207,Neurosciences,3379980,2827280,3820631,12747254,6272853,2383004,3456677,9750643
3209,Optometry,,,272070,414000,240000,403622,16508,337195
3210,Clinical sciences,1439917,1690370,2076646,2061697,1850000,2136448,780168,19642502
3211,Nursing,377450,363198,370000,1004888,873630,580998,843168,245531
3212,Public health and health services,2024726,2506418,4817020,9330216,5419465,10030987,15734645,21991817
3214,Human movement and sports science,404000,560266,850768,236358,1101120,763290,629000,683000
3299,Other medical and health sciences,,20000,510668,310000,380000,987000,307881,928800
3301,Education studies,3866655,4910269,3601175,6821244,7013449,5136695,5308477,10423781
3302,Curriculum studies,1283000,1962262,1972891,1737972,1163283,975341,1584600,4200149
3303,Professional development of teachers,496000,1309500,935668,672000,697683,913000,2099032,1982632
3399,Other education,55670,630572,427586,,731372,1051000,287541,
3401,Economic theory,341000,1383950,1669710,1857120,960972,1417938,856941,69000
3402,Applied economics,3453600,6944220,4631842,5233082,7545193,9609686,9537905,7865770
3403,Economic history and history of economic thought,,249832,,70000,166000,225000,320000,
3404,Econometrics,711643,1431250,1236736,3327431,1517000,1088236,898118,4213825
3499,Other economics,24000,287099,,85360,531216,260000,,
3501,"Accounting, auditing and accountability",733635,361500,634370,1081856,1219618,142438,1326049,328992
3502,Business and management,2396917,3812986,6481410,4754218,3550132,6134370,3839923,7693452
3503,"Banking, finance and investment",1468999,1102937,3736709,2483250,1824205,2776064,1231062,610000
3504,Transportation,492635,485495,713367,636636,530076,1143718,786398,531193
3505,Tourism,82200,69099,290668,,143000,,,314193
3506,Services,,50000,,72444,228026,,270000,
3601,Political science,2163118,3521597,5016625,3003566,4961184,2889479,4647369,6120890
3602,Policy and administration,1205270,1331099,2060174,2692213,3219069,1765746,1288491,2964087
3699,Other policy and political science,131000,90000,,,,,,103000
3701,Sociology,3673901,4594065,8351680,4373130,7927870,5595004,6338510,5875142
3702,Social work,1309175,950396,1003596,1778899,1627224,1700764,1942276,1905000
3703,Anthropology,3358764,2951762,2372294,1860026,2385340,2598427,4614018,3689832
3704,Human geography,1424995,711262,1529626,1554444,965859,1704873,2249287,4258653
3705,Demography,1881697,812000,2093257,3547500,1867622,1813585,1707064,2043200
3706,History and philosophy of science and medicine,704619,830423,2203334,1084592,1833145,945520,1112286,780500
3799,Other studies in human society,1876613,1239618,3373110,1254948,565786,683416,1177966,3422220
3801,Psychology,8070298,13785267,15713243,15263421,20275495,16315283,20015811,21530624
3802,Linguistics,842082,3233000,2031412,2280367,2216020,2682000,2636965,1966861
3803,Cognitive science,1417500,200000,4197357,401442,517000,659000,563000,1498685
3899,Other behavioural and cognitive studies,,,2500000,215000,,600000,210000,235773
3901,Law,4501021,2628611,2044181,6037315,5497006,3931606,3770975,8292722
3902,Professional development of law practitioners,,,89253,70000,,,,
3903,Justice and legal studies,1012980,806165,692153,1130106,2857307,834319,1971345,3857389
3904,Law enforcement,491188,2118992,1924932,2331900,1356005,3180100,2637002,5246791
3999,"Other law, justice and law enforcement",416270,,,243000,1819790,129085,531593,638000
4001,"Journalism, communication and media",1103967,1849029,1539486,2041618,3371624,2680196,2559062,1906000
4003,Curatorial studies,170064,30000,250894,716115,328950,381113,1477975,208000
4099,"Other journalism, librarianship and curatorial studies",,20000,,,,,,
4101,Performing arts,1149214,1389468,2773492,2466587,2121451,2603820,1524992,3657400
4102,Visual arts and crafts,,495476,364000,1002000,,609674,,718000
4103,"Cinema, electronic arts and multimedia",310000,4090115,1306264,1525661,872725,673889,1620542,1271757
4104,Design studies,240146,454179,335168,,967621,691170,280000,420028
4199,Other arts,667559,472059,677000,340309,228000,1399509,1006539,343000
4201,Language studies,,278245,937528,715937,,1349776,505000,184000
4202,Literature studies,2837870,2913454,1532025,4995316,3221272,6239212,4055165,4065160
4203,Cultural studies,1296721,4038962,6214216,5781175,4417148,2508058,4749663,5060916
4299,Other language and culture,420542,79913,,,,,,
4301,Historical studies,6310890,8555225,10626892,13991877,10205520,10277148,7114292,7911631
4302,Archaeology and prehistory,1645311,3581272,3114235,3862204,2121278,4981749,6580957,7301330
4399,Other history and archaeology,,,140000,,,,,
4401,Philosophy,2706844,2391254,3410333,2964791,4842407,6282003,3127900,6230531
4402,Religion and religious traditions,846577,308690,513580,1907200,796212,828746,287673,1327000
Total,,331040775,541095871,467868147,600477527,475595065,462854394,490580740,656177639
,,,,,,,,,
"Note 1 - The schemes included are: Centres of Excellence, Discovery Indigenous Researchers Development, Discovery Projects, Federation Fellowships, Australian Laureate Fellowships, Future Fellowships, Linkage Projects (APAI Only), Linkage APD CSIRO, Linkage Infrastructure Equipment and Facilities, Linkage Projects, Special Research Initiatives, Linkage International, ARC Research Networks, and Special Research Initiatives (Thinking Systems). ",,,,,,,,,
"Note 2 - RFCD (Research Fields, Courses and Disciplines) classification is used in Australia to classify research fields. The classification is a hierarchical structure with 3 levels, the top level represented by the first 2-digit codes, the middle level by the first 4-digit codes, and the bottom level by 6-digit codes. Research applicants are invited to classify their proposals to up to three 6-digit RFCD codes and to indicate the proportion of the research content attributable to each of those codes. The ARC rolls up the 6-digit RFCD codes to 4- and 2-digit RFCD code on the basis of the combined proportions of the 6-digit RFCD codes. Where applicants indicate equal proportion, eg. 50% of two selected RFCD codes, on a project, the first RFCD code is selected by the ARC as the primary 4-digit RFCD code for the purpose of statistic presentation in this table. All RFCD codes were selected and entered by research applicants on research proposals and it is possible that some entries made were inaccurate or incorrect. The ARC has not verified or changed any RFCD codes entered by the applicants.",,,,,,,,,
Note 3 - Funding by RFCD was calculated on the basis of funding allocation to each project at the primary 4-digit level. The assignment process of the primary RFCD code for each project is described above in Note 2. Funding at the 2-digit RFCD level was achieved by adding up funding allocation at the 4-digit RFCD level.,,,,,,,,,
